\beamer@endinputifotherversion {3.24pt}
\beamer@sectionintoc {1}{Introduction}{2}{0}{1}
\beamer@sectionintoc {2}{Uses}{3}{0}{2}
\beamer@sectionintoc {3}{proposition}{8}{0}{3}
\beamer@sectionintoc {4}{Demo}{11}{0}{4}
