\relax 
\providecommand\hyper@newdestlabel[2]{}
\providecommand\HyperFirstAtBeginDocument{\AtBeginDocument}
\HyperFirstAtBeginDocument{\ifx\hyper@anchor\@undefined
\global\let\oldcontentsline\contentsline
\gdef\contentsline#1#2#3#4{\oldcontentsline{#1}{#2}{#3}}
\global\let\oldnewlabel\newlabel
\gdef\newlabel#1#2{\newlabelxx{#1}#2}
\gdef\newlabelxx#1#2#3#4#5#6{\oldnewlabel{#1}{{#2}{#3}}}
\AtEndDocument{\ifx\hyper@anchor\@undefined
\let\contentsline\oldcontentsline
\let\newlabel\oldnewlabel
\fi}
\fi}
\global\let\hyper@last\relax 
\gdef\HyperFirstAtBeginDocument#1{#1}
\providecommand\HyField@AuxAddToFields[1]{}
\providecommand\HyField@AuxAddToCoFields[2]{}
\@writefile{toc}{\beamer@endinputifotherversion {3.24pt}}
\@writefile{nav}{\beamer@endinputifotherversion {3.24pt}}
\@writefile{nav}{\headcommand {\slideentry {0}{0}{1}{1/1}{}{0}}}
\@writefile{nav}{\headcommand {\beamer@framepages {1}{1}}}
\@writefile{toc}{\beamer@sectionintoc {1}{Introduction}{2}{0}{1}}
\@writefile{nav}{\headcommand {\sectionentry {1}{Introduction}{2}{Introduction}{0}}}
\@writefile{nav}{\headcommand {\beamer@sectionpages {1}{1}}}
\@writefile{nav}{\headcommand {\beamer@subsectionpages {1}{1}}}
\@writefile{nav}{\headcommand {\slideentry {1}{0}{2}{2/2}{}{0}}}
\@writefile{nav}{\headcommand {\beamer@framepages {2}{2}}}
\@writefile{toc}{\beamer@sectionintoc {2}{Uses}{3}{0}{2}}
\@writefile{nav}{\headcommand {\sectionentry {2}{Uses}{3}{Uses}{0}}}
\@writefile{nav}{\headcommand {\beamer@sectionpages {2}{2}}}
\@writefile{nav}{\headcommand {\beamer@subsectionpages {2}{2}}}
\@writefile{nav}{\headcommand {\slideentry {2}{0}{3}{3/7}{}{0}}}
\@writefile{nav}{\headcommand {\beamer@framepages {3}{7}}}
\@writefile{toc}{\beamer@sectionintoc {3}{proposition}{8}{0}{3}}
\@writefile{nav}{\headcommand {\sectionentry {3}{proposition}{8}{proposition}{0}}}
\@writefile{nav}{\headcommand {\beamer@sectionpages {3}{7}}}
\@writefile{nav}{\headcommand {\beamer@subsectionpages {3}{7}}}
\@writefile{nav}{\headcommand {\slideentry {3}{0}{4}{8/10}{}{0}}}
\@writefile{nav}{\headcommand {\beamer@framepages {8}{10}}}
\@writefile{toc}{\beamer@sectionintoc {4}{Demo}{11}{0}{4}}
\@writefile{nav}{\headcommand {\sectionentry {4}{Demo}{11}{Demo}{0}}}
\@writefile{nav}{\headcommand {\beamer@sectionpages {8}{10}}}
\@writefile{nav}{\headcommand {\beamer@subsectionpages {8}{10}}}
\@writefile{nav}{\headcommand {\slideentry {4}{0}{5}{11/12}{}{0}}}
\@writefile{nav}{\headcommand {\beamer@framepages {11}{12}}}
\@writefile{nav}{\headcommand {\slideentry {4}{0}{6}{13/14}{}{0}}}
\@writefile{nav}{\headcommand {\beamer@framepages {13}{14}}}
\@writefile{nav}{\headcommand {\beamer@partpages {1}{14}}}
\@writefile{nav}{\headcommand {\beamer@subsectionpages {11}{14}}}
\@writefile{nav}{\headcommand {\beamer@sectionpages {11}{14}}}
\@writefile{nav}{\headcommand {\beamer@documentpages {14}}}
\@writefile{nav}{\headcommand {\def \inserttotalframenumber {6}}}
