\relax 
\@writefile{toc}{\contentsline {section}{\numberline {1}Introduction}{1}}
\newlabel{sec:introduction}{{1}{1}}
\citation{fortune500Analysis}
\citation{webLibaryForMobileDevices}
\citation{designingLowCostMobile}
\citation{howPeopleUseWeb}
\citation{accessibilityOfWebsites}
\citation{natda2013responsive}
\citation{bryant2012responsive}
\citation{harb2011responsive}
\citation{frain2012responsive}
\citation{madjarovresponsive}
\@writefile{toc}{\contentsline {section}{\numberline {2}Related Work}{2}}
\newlabel{sec:relatedwork}{{2}{2}}
\@writefile{toc}{\contentsline {section}{\numberline {3}Method of Approach}{3}}
\newlabel{sec:method}{{3}{3}}
\@writefile{toc}{\contentsline {subsection}{\numberline {3.1}Understanding Device Sizes}{3}}
\newlabel{ssec:Understanding Device Sizes}{{3.1}{3}}
\@writefile{toc}{\contentsline {subsection}{\numberline {3.2}Scaling CSS for Devices}{3}}
\@writefile{toc}{\contentsline {subsection}{\numberline {3.3}Handling UI elements}{4}}
\@writefile{lof}{\contentsline {figure}{\numberline {1}{\ignorespaces How work flow for the framework is going to be handled}}{4}}
\newlabel{Figure 1}{{1}{4}}
\@writefile{lof}{\contentsline {figure}{\numberline {2}{\ignorespaces An example of what the CSS might look like for a four column responsive web framework}}{5}}
\newlabel{Figure 2}{{2}{5}}
\@writefile{toc}{\contentsline {section}{\numberline {4}Evaluation Strategy}{6}}
\newlabel{sec:evaluate}{{4}{6}}
\@writefile{toc}{\contentsline {section}{\numberline {5}Timeline}{7}}
\newlabel{Timeline}{{5}{7}}
\@writefile{lot}{\contentsline {table}{\numberline {1}{\ignorespaces Proposed work schedule}}{7}}
\newlabel{work schedule}{{1}{7}}
\@writefile{toc}{\contentsline {section}{\numberline {6}Conclusion}{8}}
\newlabel{Conclusion}{{6}{8}}
\bibstyle{plain}
\bibdata{Adaptive-WebUI}
\bibcite{bryant2012responsive}{1}
\bibcite{howPeopleUseWeb}{2}
\bibcite{frain2012responsive}{3}
\bibcite{harb2011responsive}{4}
\bibcite{madjarovresponsive}{5}
\bibcite{fortune500Analysis}{6}
\bibcite{natda2013responsive}{7}
\bibcite{accessibilityOfWebsites}{8}
\bibcite{webLibaryForMobileDevices}{9}
\bibcite{designingLowCostMobile}{10}
