\begin{thebibliography}{1}

\bibitem{Self-Charging}
Mohamed~Elksas Amira~Elsonbaty, Rawya~Rizk and Mofreh Salem.
\newblock A cooperative multi-robot control using ad hoc wireless network.
\newblock In {\em Proceedings of the 24th International Conference on Software
  Engineering}. World Academy of Science, Engineering and Technology, 2009.

\bibitem{Esync}
Liang He, Lingkun Fu, Likun Zheng, Yu~Gu, Peng Cheng, Jiming Chen, and Jianping
  Pan.
\newblock Esync: An energy synchronized charging protocol for rechargeable
  wireless sensor networks.
\newblock In {\em Proceedings of the 15th ACM International Symposium on Mobile
  Ad Hoc Networking and Computing}, MobiHoc '14, pages 247--256, New York, NY,
  USA, 2014. ACM.

\bibitem{Michaud:2001}
Fran\c{c}ois Michaud and Jonathan Audet.
\newblock Using motives and artificial emotions for long-term activity of an
  autonomous robot.
\newblock In {\em Proceedings of the Fifth International Conference on
  Autonomous Agents}, AGENTS '01, pages 188--189, New York, NY, USA, 2001. ACM.

\bibitem{Song:2014}
Zhao Song and Wen Sun.
\newblock Probabilistic recharging model in uncertain environments.
\newblock In {\em Proceedings of the 2014 International Conference on
  Autonomous Agents and Multi-agent Systems}, AAMAS '14, pages 1343--1344,
  Richland, SC, 2014. International Foundation for Autonomous Agents and
  Multiagent Systems.

\bibitem{Robot-Charging-Robot}
Jun Zhang, Guangming Song, Yuya Li, Guifang Qiao, and Zhiwen Li.
\newblock Battery swapping and wireless charging for a home robot system with
  remote human assistance.
\newblock {\em Consumer Electronics, IEEE Transactions on}, 59(4):747--755,
  November 2013.

\end{thebibliography}
