\relax 
\citation{Esync}
\citation{Self-Charging}
\citation{Michaud:2001}
\citation{Song:2014}
\citation{Robot-Charging-Robot}
\@writefile{toc}{\contentsline {section}{\numberline {1}Introduction}{1}}
\newlabel{sec:introduction}{{1}{1}}
\@writefile{toc}{\contentsline {section}{\numberline {2}Related Work}{1}}
\newlabel{sec:relatedwork}{{2}{1}}
\@writefile{toc}{\contentsline {section}{\numberline {3}Method of Approach}{2}}
\newlabel{sec:method}{{3}{2}}
\@writefile{toc}{\contentsline {subsection}{\numberline {3.1}Design Of Robots}{2}}
\@writefile{toc}{\contentsline {subsection}{\numberline {3.2}Algorithm for Implementation}{2}}
\@writefile{toc}{\contentsline {subsection}{\numberline {3.3}Handling Multiple Request}{3}}
\@writefile{toc}{\contentsline {section}{\numberline {4}Evaluation Strategy}{3}}
\@writefile{toc}{\contentsline {subsection}{\numberline {4.1}Evaluation of Design}{3}}
\@writefile{toc}{\contentsline {subsection}{\numberline {4.2}Evaluation of Algorithm}{3}}
\newlabel{sec:evaluate}{{4.2}{4}}
\@writefile{toc}{\contentsline {section}{\numberline {5}Conclusion}{4}}
\newlabel{Conclusion}{{5}{4}}
\bibstyle{plain}
\bibdata{Charging_in_multi-robotics}
\bibcite{Self-Charging}{1}
\bibcite{Esync}{2}
\bibcite{Michaud:2001}{3}
\bibcite{Song:2014}{4}
\bibcite{Robot-Charging-Robot}{5}
