\relax 
\citation{Jones:2002}
\citation{Bednarik:2004}
\citation{wong2009survey}
\citation{wong2009survey}
\citation{Jones:2002}
\@writefile{toc}{\contentsline {section}{\numberline {1}Introduction}{1}}
\newlabel{sec:introduction}{{1}{1}}
\@writefile{toc}{\contentsline {section}{\numberline {2}Related Work}{1}}
\newlabel{sec:relatedwork}{{2}{1}}
\@writefile{toc}{\contentsline {section}{\numberline {3}Method of Approach}{2}}
\newlabel{sec:method}{{3}{2}}
\@writefile{lof}{\contentsline {figure}{\numberline {1}{\ignorespaces Standard flowcharting symbols}}{3}}
\newlabel{Figure 1}{{1}{3}}
\@writefile{toc}{\contentsline {section}{\numberline {4}Evaluation Strategy}{3}}
\newlabel{sec:evaluate}{{4}{3}}
\@writefile{toc}{\contentsline {section}{\numberline {5}Conclusion}{4}}
\newlabel{sec:conclusion}{{5}{4}}
\bibstyle{plain}
\bibdata{senior_thesis_proposal}
\bibcite{Bednarik:2004}{1}
\bibcite{Jones:2002}{2}
\bibcite{wong2009survey}{3}
