\relax 
\citation{fortune500Analysis}
\citation{webLibaryForMobileDevices}
\citation{designingLowCostMobile}
\citation{howPeopleUseWeb}
\citation{accessibilityOfWebsites}
\@writefile{toc}{\contentsline {section}{\numberline {1}Introduction}{1}}
\newlabel{sec:introduction}{{1}{1}}
\@writefile{toc}{\contentsline {section}{\numberline {2}Related Work}{1}}
\newlabel{sec:relatedwork}{{2}{1}}
\@writefile{toc}{\contentsline {section}{\numberline {3}Method of Approach}{2}}
\newlabel{sec:method}{{3}{2}}
\@writefile{toc}{\contentsline {subsection}{\numberline {3.1}Understanding Device Sizes}{2}}
\newlabel{ssec:Understanding Device Sizes}{{3.1}{2}}
\@writefile{toc}{\contentsline {subsection}{\numberline {3.2}Scaling CSS for Devices}{2}}
\@writefile{toc}{\contentsline {section}{\numberline {4}Evaluation Strategy}{2}}
\newlabel{sec:evaluate}{{4}{2}}
\@writefile{toc}{\contentsline {section}{\numberline {5}Conclusion}{2}}
\newlabel{Conclusion}{{5}{2}}
\bibstyle{plain}
\bibdata{Adaptive-WebUI}
\bibcite{howPeopleUseWeb}{1}
\bibcite{fortune500Analysis}{2}
\bibcite{accessibilityOfWebsites}{3}
\bibcite{webLibaryForMobileDevices}{4}
\bibcite{designingLowCostMobile}{5}
