\relax 
\providecommand\hyper@newdestlabel[2]{}
\@setckpt{content/listingDriver}{
\setcounter{page}{1}
\setcounter{equation}{0}
\setcounter{enumi}{0}
\setcounter{enumii}{0}
\setcounter{enumiii}{0}
\setcounter{enumiv}{0}
\setcounter{footnote}{0}
\setcounter{mpfootnote}{0}
\setcounter{beamerpauses}{1}
\setcounter{bookmark@seq@number}{0}
\setcounter{lecture}{0}
\setcounter{part}{0}
\setcounter{section}{0}
\setcounter{subsection}{0}
\setcounter{subsubsection}{0}
\setcounter{subsectionslide}{1}
\setcounter{framenumber}{1}
\setcounter{figure}{3}
\setcounter{table}{0}
\setcounter{parentequation}{0}
\setcounter{theorem}{0}
\setcounter{treecount}{0}
\setcounter{branchcount}{0}
\setcounter{ContinuedFloat}{0}
\setcounter{lstnumber}{18}
\setcounter{section@level}{0}
\setcounter{lstlisting}{0}
}
