\relax 
\providecommand\hyper@newdestlabel[2]{}
\providecommand\HyperFirstAtBeginDocument{\AtBeginDocument}
\HyperFirstAtBeginDocument{\ifx\hyper@anchor\@undefined
\global\let\oldcontentsline\contentsline
\gdef\contentsline#1#2#3#4{\oldcontentsline{#1}{#2}{#3}}
\global\let\oldnewlabel\newlabel
\gdef\newlabel#1#2{\newlabelxx{#1}#2}
\gdef\newlabelxx#1#2#3#4#5#6{\oldnewlabel{#1}{{#2}{#3}}}
\AtEndDocument{\ifx\hyper@anchor\@undefined
\let\contentsline\oldcontentsline
\let\newlabel\oldnewlabel
\fi}
\fi}
\global\let\hyper@last\relax 
\gdef\HyperFirstAtBeginDocument#1{#1}
\providecommand*\HyPL@Entry[1]{}
\HyPL@Entry{0<</P(0)>>}
\@writefile{toc}{\beamer@endinputifotherversion {3.24pt}}
\@writefile{nav}{\beamer@endinputifotherversion {3.24pt}}
\@writefile{nav}{\headcommand {\slideentry {0}{0}{1}{1/1}{}{0}}}
\@writefile{nav}{\headcommand {\beamer@framepages {1}{1}}}
\HyPL@Entry{1<</P(1)>>}
\@writefile{toc}{\beamer@sectionintoc {1}{Introduction}{2}{0}{1}}
\@writefile{nav}{\headcommand {\sectionentry {1}{Introduction}{2}{Introduction}{0}}}
\@writefile{nav}{\headcommand {\beamer@sectionpages {1}{1}}}
\@writefile{nav}{\headcommand {\beamer@subsectionpages {1}{1}}}
\@writefile{nav}{\headcommand {\slideentry {1}{0}{2}{2/2}{}{0}}}
\@writefile{nav}{\headcommand {\beamer@framepages {2}{2}}}
\HyPL@Entry{2<</P(2)>>}
\@writefile{nav}{\headcommand {\slideentry {1}{0}{3}{3/5}{}{0}}}
\@writefile{nav}{\headcommand {\beamer@framepages {3}{5}}}
\HyPL@Entry{5<</P(3)>>}
\@writefile{nav}{\headcommand {\slideentry {1}{0}{4}{6/7}{}{0}}}
\@writefile{nav}{\headcommand {\beamer@framepages {6}{7}}}
\HyPL@Entry{7<</P(4)>>}
\@writefile{toc}{\beamer@sectionintoc {2}{Software Debugger}{8}{0}{2}}
\@writefile{nav}{\headcommand {\sectionentry {2}{Software Debugger}{8}{Software Debugger}{0}}}
\@writefile{nav}{\headcommand {\beamer@sectionpages {2}{7}}}
\@writefile{nav}{\headcommand {\beamer@subsectionpages {2}{7}}}
\@writefile{nav}{\headcommand {\slideentry {2}{0}{5}{8/8}{}{0}}}
\@writefile{nav}{\headcommand {\beamer@framepages {8}{8}}}
\HyPL@Entry{8<</P(5)>>}
\@writefile{nav}{\headcommand {\slideentry {2}{0}{6}{9/9}{}{0}}}
\@writefile{nav}{\headcommand {\beamer@framepages {9}{9}}}
\HyPL@Entry{9<</P(6)>>}
\@writefile{nav}{\headcommand {\slideentry {2}{0}{7}{10/10}{}{0}}}
\@writefile{nav}{\headcommand {\beamer@framepages {10}{10}}}
\HyPL@Entry{10<</P(7)>>}
\@writefile{nav}{\headcommand {\slideentry {2}{0}{8}{11/11}{}{0}}}
\@writefile{nav}{\headcommand {\beamer@framepages {11}{11}}}
\HyPL@Entry{11<</P(8)>>}
\@writefile{nav}{\headcommand {\slideentry {2}{0}{9}{12/14}{}{0}}}
\@writefile{nav}{\headcommand {\beamer@framepages {12}{14}}}
\HyPL@Entry{14<</P(9)>>}
\@writefile{toc}{\beamer@sectionintoc {3}{Evaluation}{15}{0}{3}}
\@writefile{nav}{\headcommand {\sectionentry {3}{Evaluation}{15}{Evaluation}{0}}}
\@writefile{nav}{\headcommand {\beamer@sectionpages {8}{14}}}
\@writefile{nav}{\headcommand {\beamer@subsectionpages {8}{14}}}
\@writefile{nav}{\headcommand {\slideentry {3}{0}{10}{15/15}{}{0}}}
\@writefile{nav}{\headcommand {\beamer@framepages {15}{15}}}
\HyPL@Entry{15<</P(10)>>}
\@writefile{nav}{\headcommand {\slideentry {3}{0}{11}{16/17}{}{0}}}
\@writefile{nav}{\headcommand {\beamer@framepages {16}{17}}}
\HyPL@Entry{17<</P(11)>>}
\@writefile{toc}{\beamer@sectionintoc {4}{Conclusion}{18}{0}{4}}
\@writefile{nav}{\headcommand {\sectionentry {4}{Conclusion}{18}{Conclusion}{0}}}
\@writefile{nav}{\headcommand {\beamer@sectionpages {15}{17}}}
\@writefile{nav}{\headcommand {\beamer@subsectionpages {15}{17}}}
\@writefile{nav}{\headcommand {\slideentry {4}{0}{12}{18/18}{}{0}}}
\@writefile{nav}{\headcommand {\beamer@framepages {18}{18}}}
\HyPL@Entry{18<</P(12)>>}
\@writefile{nav}{\headcommand {\slideentry {4}{0}{13}{19/19}{}{0}}}
\@writefile{nav}{\headcommand {\beamer@framepages {19}{19}}}
\@writefile{nav}{\headcommand {\beamer@partpages {1}{19}}}
\@writefile{nav}{\headcommand {\beamer@subsectionpages {18}{19}}}
\@writefile{nav}{\headcommand {\beamer@sectionpages {18}{19}}}
\@writefile{nav}{\headcommand {\beamer@documentpages {19}}}
\@writefile{nav}{\headcommand {\def \inserttotalframenumber {12}}}
