\beamer@endinputifotherversion {3.24pt}
\beamer@sectionintoc {1}{Introduction}{2}{0}{1}
\beamer@sectionintoc {2}{Software Debugger}{8}{0}{2}
\beamer@sectionintoc {3}{Evaluation}{15}{0}{3}
\beamer@sectionintoc {4}{Conclusion}{18}{0}{4}
