\relax 
\select@language{english}
\@writefile{toc}{\select@language{english}}
\@writefile{lof}{\select@language{english}}
\@writefile{lot}{\select@language{english}}
\newlabel{Chapter_3}{{}{1}}
\newlabel{Chapter_6}{{}{1}}
