\beamer@endinputifotherversion {3.24pt}
\beamer@sectionintoc {1}{Intro}{2}{0}{1}
\beamer@sectionintoc {2}{AES}{6}{0}{2}
\beamer@sectionintoc {3}{DES}{9}{0}{3}
\beamer@sectionintoc {4}{ECDSA}{12}{0}{4}
\beamer@sectionintoc {5}{Evaluation}{14}{0}{5}
