\relax 
\providecommand\hyper@newdestlabel[2]{}
\providecommand\HyperFirstAtBeginDocument{\AtBeginDocument}
\HyperFirstAtBeginDocument{\ifx\hyper@anchor\@undefined
\global\let\oldcontentsline\contentsline
\gdef\contentsline#1#2#3#4{\oldcontentsline{#1}{#2}{#3}}
\global\let\oldnewlabel\newlabel
\gdef\newlabel#1#2{\newlabelxx{#1}#2}
\gdef\newlabelxx#1#2#3#4#5#6{\oldnewlabel{#1}{{#2}{#3}}}
\AtEndDocument{\ifx\hyper@anchor\@undefined
\let\contentsline\oldcontentsline
\let\newlabel\oldnewlabel
\fi}
\fi}
\global\let\hyper@last\relax 
\gdef\HyperFirstAtBeginDocument#1{#1}
\providecommand*\HyPL@Entry[1]{}
\HyPL@Entry{0<</P(0)>>}
\@writefile{toc}{\beamer@endinputifotherversion {3.24pt}}
\@writefile{nav}{\beamer@endinputifotherversion {3.24pt}}
\@writefile{nav}{\headcommand {\slideentry {0}{0}{1}{1/1}{}{0}}}
\@writefile{nav}{\headcommand {\beamer@framepages {1}{1}}}
\HyPL@Entry{1<</P(1)>>}
\@writefile{toc}{\beamer@sectionintoc {1}{Intro}{2}{0}{1}}
\@writefile{nav}{\headcommand {\sectionentry {1}{Intro}{2}{Intro}{0}}}
\@writefile{nav}{\headcommand {\beamer@sectionpages {1}{1}}}
\@writefile{nav}{\headcommand {\beamer@subsectionpages {1}{1}}}
\@writefile{nav}{\headcommand {\slideentry {1}{0}{2}{2/2}{}{0}}}
\@writefile{nav}{\headcommand {\beamer@framepages {2}{2}}}
\HyPL@Entry{2<</P(2)>>}
\@writefile{nav}{\headcommand {\slideentry {1}{0}{3}{3/4}{}{0}}}
\@writefile{nav}{\headcommand {\beamer@framepages {3}{4}}}
\HyPL@Entry{4<</P(3)>>}
\@writefile{nav}{\headcommand {\slideentry {1}{0}{4}{5/5}{}{0}}}
\@writefile{nav}{\headcommand {\beamer@framepages {5}{5}}}
\HyPL@Entry{5<</P(4)>>}
\@writefile{toc}{\beamer@sectionintoc {2}{AES}{6}{0}{2}}
\@writefile{nav}{\headcommand {\sectionentry {2}{AES}{6}{AES}{0}}}
\@writefile{nav}{\headcommand {\beamer@sectionpages {2}{5}}}
\@writefile{nav}{\headcommand {\beamer@subsectionpages {2}{5}}}
\@writefile{nav}{\headcommand {\slideentry {2}{0}{5}{6/6}{}{0}}}
\@writefile{nav}{\headcommand {\beamer@framepages {6}{6}}}
\HyPL@Entry{6<</P(5)>>}
\@writefile{nav}{\headcommand {\slideentry {2}{0}{6}{7/7}{}{0}}}
\@writefile{nav}{\headcommand {\beamer@framepages {7}{7}}}
\HyPL@Entry{7<</P(6)>>}
\@writefile{nav}{\headcommand {\slideentry {2}{0}{7}{8/8}{}{0}}}
\@writefile{nav}{\headcommand {\beamer@framepages {8}{8}}}
\HyPL@Entry{8<</P(7)>>}
\@writefile{toc}{\beamer@sectionintoc {3}{DES}{9}{0}{3}}
\@writefile{nav}{\headcommand {\sectionentry {3}{DES}{9}{DES}{0}}}
\@writefile{nav}{\headcommand {\beamer@sectionpages {6}{8}}}
\@writefile{nav}{\headcommand {\beamer@subsectionpages {6}{8}}}
\@writefile{nav}{\headcommand {\slideentry {3}{0}{8}{9/9}{}{0}}}
\@writefile{nav}{\headcommand {\beamer@framepages {9}{9}}}
\HyPL@Entry{9<</P(8)>>}
\@writefile{nav}{\headcommand {\slideentry {3}{0}{9}{10/10}{}{0}}}
\@writefile{nav}{\headcommand {\beamer@framepages {10}{10}}}
\HyPL@Entry{10<</P(9)>>}
\@writefile{nav}{\headcommand {\slideentry {3}{0}{10}{11/11}{}{0}}}
\@writefile{nav}{\headcommand {\beamer@framepages {11}{11}}}
\HyPL@Entry{11<</P(10)>>}
\@writefile{toc}{\beamer@sectionintoc {4}{ECDSA}{12}{0}{4}}
\@writefile{nav}{\headcommand {\sectionentry {4}{ECDSA}{12}{ECDSA}{0}}}
\@writefile{nav}{\headcommand {\beamer@sectionpages {9}{11}}}
\@writefile{nav}{\headcommand {\beamer@subsectionpages {9}{11}}}
\@writefile{nav}{\headcommand {\slideentry {4}{0}{11}{12/12}{}{0}}}
\@writefile{nav}{\headcommand {\beamer@framepages {12}{12}}}
\HyPL@Entry{12<</P(11)>>}
\@writefile{nav}{\headcommand {\slideentry {4}{0}{12}{13/13}{}{0}}}
\@writefile{nav}{\headcommand {\beamer@framepages {13}{13}}}
\HyPL@Entry{13<</P(12)>>}
\@writefile{toc}{\beamer@sectionintoc {5}{Evaluation}{14}{0}{5}}
\@writefile{nav}{\headcommand {\sectionentry {5}{Evaluation}{14}{Evaluation}{0}}}
\@writefile{nav}{\headcommand {\beamer@sectionpages {12}{13}}}
\@writefile{nav}{\headcommand {\beamer@subsectionpages {12}{13}}}
\@writefile{nav}{\headcommand {\slideentry {5}{0}{13}{14/14}{}{0}}}
\@writefile{nav}{\headcommand {\beamer@framepages {14}{14}}}
\HyPL@Entry{14<</P(13)>>}
\@writefile{nav}{\headcommand {\slideentry {5}{0}{14}{15/15}{}{0}}}
\@writefile{nav}{\headcommand {\beamer@framepages {15}{15}}}
\HyPL@Entry{15<</P(14)>>}
\@writefile{nav}{\headcommand {\slideentry {5}{0}{15}{16/16}{}{0}}}
\@writefile{nav}{\headcommand {\beamer@framepages {16}{16}}}
\@writefile{nav}{\headcommand {\beamer@partpages {1}{16}}}
\@writefile{nav}{\headcommand {\beamer@subsectionpages {14}{16}}}
\@writefile{nav}{\headcommand {\beamer@sectionpages {14}{16}}}
\@writefile{nav}{\headcommand {\beamer@documentpages {16}}}
\@writefile{nav}{\headcommand {\def \inserttotalframenumber {14}}}
