\beamer@endinputifotherversion {3.24pt}
\beamer@sectionintoc {1}{Background}{2}{0}{1}
\beamer@sectionintoc {2}{Implementation}{6}{0}{2}
\beamer@sectionintoc {3}{Evalation}{10}{0}{3}
\beamer@sectionintoc {4}{Questions}{13}{0}{4}
