\relax 
\select@language{english}
\@writefile{toc}{\select@language{english}}
\@writefile{lof}{\select@language{english}}
\@writefile{lot}{\select@language{english}}
\newlabel{Chapter_1}{{}{1}}
\newlabel{Chapter_2}{{}{1}}
